you	15337
i	15076
unclear	13111
the	11102
nv	10456
and	9839
it	9066
a	7528
to	7478
yeah	7446
that	6195
what	4930
no	4850
in	4163
know	4160
he	4002
of	3957
laugh	3876
it's	3800
oh	3791
is	3742
like	3555
on	3537
do	3372
was	3295
don't	3252
got	3184
have	2977
just	2861
so	2759
but	2655
she	2616
they	2591
not	2554
me	2526
this	2525
my	2433
well	2366
one	2345
i'm	2269
go	2159
up	2109
erm	2105
get	2079
your	2076
all	2063
we	2003
are	1994
be	1950
with	1921
for	1919
that's	1918
can	1847
then	1810
there	1781
right	1775
about	1731
if	1697
cos	1676
out	1662
really	1537
name	1527
did	1524
at	1487
her	1481
when	1475
you're	1462
he's	1420
going	1414
gonna	1401
think	1376
laughing	1331
goes	1298
him	1261
i've	1255
er	1242
see	1241
why	1218
come	1212
say	1208
said	1193
now	1192
them	1153
how	1150
or	1096
mean	1039
can't	1033
as	1029
off	959
here	948
she's	935
look	931
good	916
two	904
okay	869
who	845
down	838
want	836
had	831
some	821
they're	820
i'll	813
didn't	787
his	780
something	773
yes	765
were	760
alright	754
back	754
there's	740
what's	738
put	731
mm	712
people	703
time	691
ah	682
where	681
man	679
singing	659
because	657
thing	657
bit	624
mimicking	624
doing	620
mum	620
would	615
from	600
though	576
only	571
tell	571
you've	565
wanna	545
does	542
three	538
give	535
any	524
more	518
been	515
will	515
could	511
take	510
actually	509
over	507
an	502
done	502
five	495
went	493
fucking	484
much	484
way	474
haven't	463
school	462
god	461
shouting	458
little	448
other	448
we're	443
make	427
these	427
thought	417
work	417
hello	412
nice	412
shit	408
very	408
by	407
talking	399
please	392
has	389
shut	388
gotta	386
dunno	385
sir	383
should	381
doesn't	378
sort	374
still	368
four	367
innit	364
first	363
ha	363
hear	363
might	363
last	360
never	357
quite	355
isn't	351
anyway	343
big	342
again	341
home	341
tape	338
anything	336
even	336
always	331
sorry	330
fuck	329
won't	329
saying	325
us	324
round	318
half	316
lot	312
probably	312
day	311
who's	308
told	305
remember	304
ten	304
things	300
bloody	299
reading	299
house	298
talk	298
into	296
ooh	296
which	294
ain't	293
twenty	290
coming	287
wouldn't	287
funny	285
too	285
need	283
next	282
those	278
listen	277
seen	277
better	275
am	270
their	268
i'd	266
away	261
let	261
today	261
eh	260
let's	260
says	255
six	254
night	253
old	252
getting	250
speaking	250
same	248
bad	247
than	246
boy	245
before	244
dad	240
used	240
stop	239
long	238
money	235
everyone	234
miss	234
another	233
oi	231
our	231
stupid	231
wasn't	229
after	226
year	226
else	224
gone	224
humming	224
we've	224
such	222
someone	220
new	219
eight	218
looks	215
came	213
every	212
ever	209
find	208
hundred	206
play	206
keep	205
mr	204
nothing	203
around	201
ask	201
buy	201
stuff	201
love	200
everything	199
must	199
da	197
d'ya	197
where's	197
saw	194
week	194
watch	193
comes	191
black	189
hate	189
sure	189
recording	186
sit	186
wait	186
called	185
tomorrow	185
start	184
head	182
hey	181
looking	181
mind	180
mine	178
exactly	176
through	176
sad	174
gets	173
girl	173
turn	173
being	172
spanish	172
cough	171
hair	169
ones	169
read	168
they've	167
anyone	166
you'll	166
morning	165
phone	165
couldn't	164
trying	164
many	161
wants	161
point	160
different	159
leave	159
reckon	159
seven	159
thirty	158
call	157
try	157
best	156
yet	156
enough	155
side	155
wrong	154
crap	153
fifty	153
nine	152
s	152
feel	151
write	151
end	150
hold	150
times	150
we'll	150
bye	149
heard	149
supposed	149
book	148
left	148
minute	147
top	147
having	146
sound	146
walk	146
accent	144
english	144
nick	143
speak	143
water	142
shall	141
whole	141
bet	140
girls	138
use	138
wicked	138
friend	137
minutes	136
woman	136
pretty	135
sitting	135
person	134
started	134
believe	133
giggle	133
car	132
past	132
moon	131
mum's	131
mark	130
suppose	130
face	127
made	127
bastard	126
record	126
hi	125
voice	125
maybe	124
conversation	123
urgh	123
tonight	122
bring	121
most	121
sigh	121
whispering	121
james	120
jules	120
wanted	120
weren't	119
bus	118
c	118
gave	118
hand	118
hell	118
once	118
room	118
show	118
shop	117
everybody	116
p	115
twelve	115
whatever	115
ya	115
you'd	115
french	114
live	114
thank	114
years	114
means	113
microphone	113
pay	113
friends	112
true	112
wear	112
yesterday	112
yourself	112
b	111
walking	111
bag	110
each	110
hasn't	110
piss	110
bitch	109
loads	109
paper	109
taking	109
aren't	108
run	108
tapes	108
kind	107
life	107
forty	106
jock	106
later	106
pounds	106
's	106
care	105
bed	104
lost	104
matter	104
allowed	103
door	103
fancy	103
telling	103
drink	102
hard	102
open	102
while	102
whistling	102
looked	101
may	101
move	101
playing	101
stay	101
alex	100
dick	100
happened	100
myself	100
place	100
d	99
hit	99
mouth	99
eat	98
pardon	98
homework	97
beat	95
bloke	95
bollocks	95
brother	95
course	95
emma	95
fat	95
fine	95
music	95
maths	94
mhm	94
weekend	94
white	94
high	93
own	93
already	92
dan	92
hang	92
question	92
took	92
understand	92
words	92
excuse	91
game	91
na	91
pound	91
taping	91
boring	90
bought	90
either	90
games	90
sick	90
ball	89
dog	89
shoes	89
thanks	89
truly	89
brilliant	88
number	88
pick	88
till	88
working	88
days	87
box	86
boys	86
ian	86
second	86
sniff	86
asked	85
class	85
cold	85
film	85
monday	85
also	84
computer	84
earth	84
fifteen	84
finished	84
lesson	84
making	84
set	84
thinks	84
writing	84
yours	84
break	83
cool	83
help	83
knows	83
weeks	83
found	82
front	82
joke	82
knew	82
makes	82
party	82
somebody	82
th	82
until	82
basically	81
cut	81
disgusting	81
full	81
great	81
hour	81
julian	81
mummy	81
ninety	81
running	81
saturday	81
belch	80
moment	80
picture	80
sometimes	80
baby	79
one's	79
scream	79
test	79
throat	79
f	78
food	78
guy	78
least	78
letter	78
song	78
takes	78
able	77
red	77
sister	77
sounds	77
tt	77
boom	75
both	75
charlie	75
dear	75
energy	75
far	75
problem	75
world	75
bothered	74
clears	74
part	74
she'll	74
tel	74
walked	74
ago	73
birthday	73
light	73
parents	73
sarah	73
small	73
window	73
d'you	72
holiday	72
listening	72
pissed	72
thinking	72
under	72
yo	72
answer	71
clothes	71
doo	71
easy	71
friday	71
kill	71
meant	71
o'clock	71
weird	71
wish	71
bottle	70
floor	70
o	70
real	70
table	70
between	69
blah	69
imagine	69
jim	69
job	69
lucy	69
mad	69
rough	69
sh	69
arse	68
billy	68
fight	68
mate	68
men	68
study	68
teacher	68
w	68
bum	67
dawn	67
he'll	66
late	66
super	66
tuesday	66
american	65
fucked	65
hope	65
pen	65
wh	65
word	65
absolutely	64
eleven	64
john	64
obviously	64
ow	64
ready	64
swear	64
they'll	64
christmas	63
crying	63
cup	63
dad's	63
horrible	63
huh	63
massive	63
nah	63
outside	63
seriously	63
toilet	63
train	63
behind	62
change	62
few	62
lovely	62
since	62
ages	61
missed	61
rubbish	61
worry	61
dead	60
dinner	60
forget	60
hot	60
norwegian	60
sixty	60
usually	60
bar	59
borrow	59
chris	59
e	59
he'd	59
it'll	59
questions	59
sunday	59
term	59
dirty	58
joking	58
michael	58
project	58
russell	58
third	58
coke	57
hurt	57
idea	57
legs	57
middle	57
n	57
ross	57
sing	57
together	57
wow	57
x	57
completely	56
danny	56
pass	56
quid	56
rest	56
using	56
apparently	55
books	55
cunt	55
football	55
grace	55
paul	55
shouldn't	55
silly	55
thousand	55
wearing	55
wonder	55
country	54
couple	54
depends	54
page	54
park	54
peter	54
t	54
thick	54
video	54
anybody	53
early	53
josie	53
soon	53
across	52
address	52
along	52
ben	52
la	52
ma	52
marks	52
norway	52
quiet	52
road	52
somewhere	52
straight	52
tried	52
extra	51
given	51
green	51
learn	51
lunch	51
ring	51
serious	51
shh	51
stand	51
sun	51
tea	51
wednesday	51
whether	51
written	51
bother	50
daniel	50
difference	50
guess	50
hours	50
inside	50
kiss	50
match	50
reason	50
rude	50
young	50
aargh	49
blue	49
fact	49
family	49
finish	49
flat	49
fool	49
ho	49
interesting	49
its	49
pull	49
shops	49
size	49
standing	49
they'd	49
case	48
colour	48
dark	48
fit	48
forgot	48
jump	48
less	48
lisa	48
lots	48
near	48
nearly	48
send	48
whose	48
without	48
yellow	48
bottom	47
cat	47
changed	47
copy	47
david	47
eyes	47
giving	47
j	47
jimmy	47
nasty	47
piece	47
quick	47
robin	47
rugby	47
sleep	47
trust	47
ugly	47
unless	47
difficult	46
everyone's	46
example	46
g	46
here's	46
pete	46
plus	46
shelley	46
smoke	46
type	46
women	46
yawn	46
age	45
anthony	45
body	45
card	45
close	45
complete	45
cow	45
feet	45
hands	45
jacket	45
lick	45
longer	45
nobody	45
nose	45
percent	45
pub	45
thirteen	45
we'd	45
worth	45
carry	44
effect	44
fun	44
group	44
happens	44
important	44
kate	44
knock	44
machine	44
months	44
noise	44
trouble	44
tsk	44
conversations	43
fourth	43
history	43
instead	43
jo	43
kids	43
sam	43
science	43
shout	43
sighing	43
snow	43
stick	43
story	43
wa	43
watched	43
apart	42
beginning	42
definitely	42
lying	42
meet	42
mrs	42
special	42
steven	42
walkman	42
worse	42
bike	41
ca	41
caught	41
gives	41
h	41
happy	41
rather	41
sixth	41
street	41
teachers	41
team	41
waiting	41
watching	41
whistle	41
america	40
amy	40
andy	40
awl	40
children	40
cost	40
damn	40
land	40
line	40
london	40
normal	40
properly	40
sell	40
taken	40
alone	39
chocolate	39
driving	39
form	39
happen	39
likes	39
m	39
noticed	39
prep	39
score	39
seeing	39
wanker	39
y	39
against	38
carolina	38
cassie	38
daddy	38
died	38
jane	38
lady	38
otherwise	38
service	38
sheet	38
short	38
sweet	38
touch	38
trousers	38
underneath	38
upstairs	38
wrote	38
yep	38
art	37
batteries	37
broke	37
kick	37
names	37
neck	37
notes	37
phoned	37
power	37
rich	37
sa	37
sex	37
sharp	37
tall	37
wall	37
add	36
aha	36
arsenal	36
bank	36
caroline	36
charlotte	36
chicken	36
henry's	36
ice	36
ill	36
it'd	36
loud	36
lucky	36
mother	36
putting	36
