Bangla,run1,acm\B,acm\E,ebare acm sigchi conference kothae hobe kobe hobe
Bangla,run1,amanda\B,amanda\E,amanda rosenbergke kemon dekhte
Bangla,run1,australiar\B,australiar\E,australiar porer adhinayak ke hobe
Bangla,run1,bar\E,bar\B,dine koto bar cha khawa uchit
Bangla,run1,bar\E,bar\B,shoptaher bar nam origins
Bangla,run1,bel\E,bel\B,mathae bel porle ki lok more jete pare
Bangla,run1,bunionke\B,bunionke\E,bunionke banglae ki bole
Bangla,run1,char\E,char\B,char dham jatrae kon kon tirtho cover hoy
Bangla,run1,chennai\B,chennai\E,chennai expresser bangla subtitle
Bangla,run1,cinemar\B,cinemar\E,Bangla cinemas sera eksho cinemar nam
Bangla,run1,comicser\B,comicser\E,henry comicser nam gablu holo keno
Bangla,run1,corridorer\B,corridorer\E,florencer vasari corridorer chhobi
Bangla,run1,dante\E,dante\B,hatir dante toiri casket buy online
Bangla,run1,din\E,din\B,din ani din khai population in kolkata
Bangla,run1,diner\E,diner\B,diner shorbochcho tapmatra kokhon hoy
Bangla,run1,Durga\B,Durga\E,Durga shakti nagpal bali mafia up sarkar jhamela khabar
Bangla,run1,elsevier\B,elsevier\E,journal of web semantics elsevier
Bangla,run1,er\E,er\B,er pore olympics kothae hobe
Bangla,run1,eto\E,eto\B,amar gay eto rash beroche keno
Bangla,run1,eto\E,eto\B,amar kasperksy eto ram nichchhe keno
Bangla,run1,expresser\B,expresser\E,chennai expresser bangla subtitle
Bangla,run1,florencer\B,florencer\E,florencer vasari corridorer chhobi
Bangla,run1,fribourg\B,fribourg\E,time now in fribourg switzerland
Bangla,run1,gay\E,gay\B,amar gay eto rash beroche keno
Bangla,run1,gete\B,gete\E,Amar ubuntute sudo apt gete kono download hochhena keno
Bangla,run1,gjm\B,gjm\E,Darjeelinge jhamela gurung gjm
Bangla,run1,glazing\B,glazing\E,bathroom tiles double glazing koto khoroch
Bangla,run1,Gorkhaland\B,Gorkhaland\E,Gorkhaland sankranto khabar
Bangla,run1,gurung\B,gurung\E,Darjeelinge jhamela gurung gjm
Bangla,run1,ibl\B,ibl\E,saina nehwal ibl match reports anandabazar
Bangla,run1,indiate\B,indiate\E,ibm indiate ki nie research hoy
Bangla,run1,indiate\B,indiate\E,south indiate engineering porar best colleges
Bangla,run1,jharkhand\B,jharkhand\E,Maobadi samossya poschimbongo jharkhand
Bangla,run1,kasperksy\B,kasperksy\E,amar kasperksy eto ram nichchhe keno
Bangla,run1,kobe\E,kobe\B,ebare acm sigchi conference kothae hobe kobe hobe
Bangla,run1,lok\E,lok\B,mathae bel porle ki lok more jete pare
Bangla,run1,mafia\B,mafia\E,Durga shakti nagpal bali mafia up sarkar jhamela khabar
Bangla,run1,mar\E,mar\B,amar mar hatute jontrona hochchhe keno
Bangla,run1,mar\E,mar\B,mar hater goyna nie ki kono cinema ache
Bangla,run1,masochist\B,masochist\E,masochist mane
Bangla,run1,melanoma\B,melanoma\E,skin melanoma treatmenter best jayga
Bangla,run1,more\E,more\B,mathae bel porle ki lok more jete pare
Bangla,run1,more\E,more\B,more aro aro aro dao pran music video
Bangla,run1,nagpal\B,nagpal\E,Durga shakti nagpal bali mafia up sarkar jhamela khabar
Bangla,run1,nehwal\B,nehwal\E,saina nehwal ibl match reports anandabazar
Bangla,run1,noon\E,noon\B,noon na dile khabarer taste hoyna
Bangla,run1,o\E,o\B,tar mane ki o aj ashbena
Bangla,run1,pakistan\B,pakistan\E,bangladesh ar pakistan 1999 world cup scorecard
Bangla,run1,pot\E,pot\B,chhobi akar pot mane ki
Bangla,run1,ram\B,ram\E,amar kasperksy eto ram nichchhe keno
Bangla,run1,rash\B,rash\E,amar gay eto rash beroche keno
Bangla,run1,ray\E,ray\B,Katu kuto buro sukumar ray pdf
Bangla,run1,rosenbergke\B,rosenbergke\E,amanda rosenbergke kemon dekhte
Bangla,run1,sachin\B,sachin\E,sachin tendulkarer recent chhobi
Bangla,run1,saina\B,saina\E,saina nehwal ibl match reports anandabazar
Bangla,run1,sale\B,sale\E,chaitro masher sale kolkatar kon kon dokane hoi
Bangla,run1,semantics\B,semantics\E,journal of web semantics elsevier
Bangla,run1,servere\B,servere\E,mysql servere ki kore user add kore
Bangla,run1,shakti\B,shakti\E,Durga shakti nagpal bali mafia up sarkar jhamela khabar
Bangla,run1,sheet\E,sheet\B,beshi sheet kora ki kono oshukher symptoms
Bangla,run1,sigchi\B,sigchi\E,ebare acm sigchi conference kothae hobe kobe hobe
Bangla,run1,sri\E,sri\B,rash leela sri krishna pictures
Bangla,run1,subtitle\B,subtitle\E,chennai expresser bangla subtitle
Bangla,run1,sudo\B,sudo\E,Amar ubuntute sudo apt gete kono download hochhena keno
Bangla,run1,tamile\B,tamile\E,ami tomake valobasi tamile ki habe
Bangla,run1,tar\E,tar\B,electric tar best company ki
Bangla,run1,tar\E,tar\B,tar barite ekta goyal ache
Bangla,run1,tar\E,tar\B,tar mane ki o aj ashbena
Bangla,run1,Tata\B,Tata\E,Singur samassya Tata supreme court judgement
Bangla,run1,tendulkarer\B,tendulkarer\E,sachin tendulkarer recent chhobi
Bangla,run1,torrenter\B,torrenter\E,bangla torrenter valo site
Bangla,run1,treatmenter\B,treatmenter\E,skin melanoma treatmenter best jayga
Bangla,run1,ubuntute\B,ubuntute\E,Amar ubuntute sudo apt gete kono download hochhena keno
Bangla,run1,vasari\B,vasari\E,florencer vasari corridorer chhobi
Bangla,run1,washingtone\B,washingtone\E,new york ar washingtone beranor jayga
Bangla,run1,wiki\B,wiki\E,Kabir suman wiki
Bangla,run2,acm\B,acm\E,ebare acm sigchi conference kothae hobe kobe hobe
Bangla,run2,amanda\B,amanda\E,amanda rosenbergke kemon dekhte
Bangla,run2,apt\B,apt\E,Amar ubuntute sudo apt gete kono download hochhena keno
Bangla,run2,australiar\B,australiar\E,australiar porer adhinayak ke hobe
Bangla,run2,bangladesh\B,bangladesh\E,bangladesh ar pakistan 1999 world cup scorecard
Bangla,run2,bunionke\B,bunionke\E,bunionke banglae ki bole
Bangla,run2,chennai\B,chennai\E,chennai expresser bangla subtitle
Bangla,run2,cinemar\B,cinemar\E,Bangla cinemas sera eksho cinemar nam
Bangla,run2,comicser\B,comicser\E,henry comicser nam gablu holo keno
Bangla,run2,corridorer\B,corridorer\E,florencer vasari corridorer chhobi
Bangla,run2,crash\B,crash\E,amar microsoft word barbar crash korchhe keno
Bangla,run2,dante\B,dante\E,dante divine comedy bangla onubad
Bangla,run2,din\E,din\B,din ani din khai population in kolkata
Bangla,run2,dine\E,dine\B,dine koto bar cha khawa uchit
Bangla,run2,dine\E,dine\B,ek dine koto second
Bangla,run2,diner\E,diner\B,diner shorbochcho tapmatra kokhon hoy
Bangla,run2,Durga\B,Durga\E,Durga shakti nagpal bali mafia up sarkar jhamela khabar
Bangla,run2,elsevier\B,elsevier\E,journal of web semantics elsevier
Bangla,run2,er\E,er\B,er pore olympics kothae hobe
Bangla,run2,eto\E,eto\B,amar gay eto rash beroche keno
Bangla,run2,eto\E,eto\B,amar kasperksy eto ram nichchhe keno
Bangla,run2,expresser\B,expresser\E,chennai expresser bangla subtitle
Bangla,run2,florencer\B,florencer\E,florencer vasari corridorer chhobi
Bangla,run2,fribourg\B,fribourg\E,time now in fribourg switzerland
Bangla,run2,gete\B,gete\E,Amar ubuntute sudo apt gete kono download hochhena keno
Bangla,run2,gjm\B,gjm\E,Darjeelinge jhamela gurung gjm
Bangla,run2,glazing\B,glazing\E,bathroom tiles double glazing koto khoroch
Bangla,run2,Gorkhaland\B,Gorkhaland\E,Gorkhaland sankranto khabar
Bangla,run2,gurung\B,gurung\E,Darjeelinge jhamela gurung gjm
Bangla,run2,henry\B,henry\E,henry comicser nam gablu holo keno
Bangla,run2,ibl\B,ibl\E,saina nehwal ibl match reports anandabazar
Bangla,run2,ibm\B,ibm\E,ibm indiate ki nie research hoy
Bangla,run2,indiate\B,indiate\E,ibm indiate ki nie research hoy
Bangla,run2,indiate\B,indiate\E,south indiate engineering porar best colleges
Bangla,run2,jharkhand\B,jharkhand\E,Maobadi samossya poschimbongo jharkhand
Bangla,run2,jodi\E,jodi\B,ei path jodi na shesh hoy lyrics
Bangla,run2,kasperksy\B,kasperksy\E,amar kasperksy eto ram nichchhe keno
Bangla,run2,lok\E,lok\B,mathae bel porle ki lok more jete pare
Bangla,run2,masochist\B,masochist\E,masochist mane
Bangla,run2,more\E,more\B,mathae bel porle ki lok more jete pare
Bangla,run2,more\E,more\B,more aro aro aro dao pran music video
Bangla,run2,nagpal\B,nagpal\E,Durga shakti nagpal bali mafia up sarkar jhamela khabar
Bangla,run2,nehwal\B,nehwal\E,saina nehwal ibl match reports anandabazar
Bangla,run2,noon\E,noon\B,noon na dile khabarer taste hoyna
Bangla,run2,o\E,o\B,tar mane ki o aj ashbena
Bangla,run2,pakistan\B,pakistan\E,bangladesh ar pakistan 1999 world cup scorecard
Bangla,run2,pot\E,pot\B,chhobi akar pot mane ki
Bangla,run2,ram\B,ram\E,amar kasperksy eto ram nichchhe keno
Bangla,run2,rash\B,rash\E,amar gay eto rash beroche keno
Bangla,run2,rosenbergke\B,rosenbergke\E,amanda rosenbergke kemon dekhte
Bangla,run2,sachin\B,sachin\E,sachin tendulkarer recent chhobi
Bangla,run2,saina\B,saina\E,saina nehwal ibl match reports anandabazar
Bangla,run2,sale\B,sale\E,chaitro masher sale kolkatar kon kon dokane hoi
Bangla,run2,semantics\B,semantics\E,journal of web semantics elsevier
Bangla,run2,servere\B,servere\E,mysql servere ki kore user add kore
Bangla,run2,shakti\B,shakti\E,Durga shakti nagpal bali mafia up sarkar jhamela khabar
Bangla,run2,sheet\E,sheet\B,beshi sheet kora ki kono oshukher symptoms
Bangla,run2,sigchi\B,sigchi\E,ebare acm sigchi conference kothae hobe kobe hobe
Bangla,run2,subtitle\B,subtitle\E,chennai expresser bangla subtitle
Bangla,run2,sudo\B,sudo\E,Amar ubuntute sudo apt gete kono download hochhena keno
Bangla,run2,tamile\B,tamile\E,ami tomake valobasi tamile ki habe
Bangla,run2,taste\B,taste\E,noon na dile khabarer taste hoyna
Bangla,run2,Tata\B,Tata\E,Singur samassya Tata supreme court judgement
Bangla,run2,tendulkarer\B,tendulkarer\E,sachin tendulkarer recent chhobi
Bangla,run2,torrenter\B,torrenter\E,bangla torrenter valo site
Bangla,run2,treatmenter\B,treatmenter\E,skin melanoma treatmenter best jayga
Bangla,run2,ubuntute\B,ubuntute\E,Amar ubuntute sudo apt gete kono download hochhena keno
Bangla,run2,vasari\B,vasari\E,florencer vasari corridorer chhobi
Bangla,run2,washingtone\B,washingtone\E,new york ar washingtone beranor jayga
Bangla,run3,acm\B,acm\E,ebare acm sigchi conference kothae hobe kobe hobe
Bangla,run3,amanda\B,amanda\E,amanda rosenbergke kemon dekhte
Bangla,run3,apt\B,apt\E,Amar ubuntute sudo apt gete kono download hochhena keno
Bangla,run3,australiar\B,australiar\E,australiar porer adhinayak ke hobe
Bangla,run3,bangladesh\B,bangladesh\E,bangladesh ar pakistan 1999 world cup scorecard
Bangla,run3,bel\E,bel\B,mathae bel porle ki lok more jete pare
Bangla,run3,bunionke\B,bunionke\E,bunionke banglae ki bole
Bangla,run3,chennai\B,chennai\E,chennai expresser bangla subtitle
Bangla,run3,cinemar\B,cinemar\E,Bangla cinemas sera eksho cinemar nam
Bangla,run3,comicser\B,comicser\E,henry comicser nam gablu holo keno
Bangla,run3,corridorer\B,corridorer\E,florencer vasari corridorer chhobi
Bangla,run3,crash\B,crash\E,amar microsoft word barbar crash korchhe keno
Bangla,run3,dante\B,dante\E,dante divine comedy bangla onubad
Bangla,run3,day\B,day\E,biharer mid day meal durghotona
Bangla,run3,din\E,din\B,din ani din khai population in kolkata
Bangla,run3,dine\E,dine\B,dine koto bar cha khawa uchit
Bangla,run3,dine\E,dine\B,ek dine koto second
Bangla,run3,diner\E,diner\B,diner shorbochcho tapmatra kokhon hoy
Bangla,run3,Durga\B,Durga\E,Durga shakti nagpal bali mafia up sarkar jhamela khabar
Bangla,run3,e\E,e\B,nadir e par koe chhariya nishshash kon kobita
Bangla,run3,elsevier\B,elsevier\E,journal of web semantics elsevier
Bangla,run3,er\E,er\B,er pore olympics kothae hobe
Bangla,run3,eto\E,eto\B,amar gay eto rash beroche keno
Bangla,run3,eto\E,eto\B,amar kasperksy eto ram nichchhe keno
Bangla,run3,expresser\B,expresser\E,chennai expresser bangla subtitle
Bangla,run3,florencer\B,florencer\E,florencer vasari corridorer chhobi
Bangla,run3,fribourg\B,fribourg\E,time now in fribourg switzerland
Bangla,run3,gete\B,gete\E,Amar ubuntute sudo apt gete kono download hochhena keno
Bangla,run3,gjm\B,gjm\E,Darjeelinge jhamela gurung gjm
Bangla,run3,glazing\B,glazing\E,bathroom tiles double glazing koto khoroch
Bangla,run3,Gorkhaland\B,Gorkhaland\E,Gorkhaland sankranto khabar
Bangla,run3,gurung\B,gurung\E,Darjeelinge jhamela gurung gjm
Bangla,run3,ibl\B,ibl\E,saina nehwal ibl match reports anandabazar
Bangla,run3,ibm\B,ibm\E,ibm indiate ki nie research hoy
Bangla,run3,indiate\B,indiate\E,ibm indiate ki nie research hoy
Bangla,run3,indiate\B,indiate\E,south indiate engineering porar best colleges
Bangla,run3,jharkhand\B,jharkhand\E,Maobadi samossya poschimbongo jharkhand
Bangla,run3,jodi\E,jodi\B,ei path jodi na shesh hoy lyrics
Bangla,run3,kasperksy\B,kasperksy\E,amar kasperksy eto ram nichchhe keno
Bangla,run3,masochist\B,masochist\E,masochist mane
Bangla,run3,melanoma\B,melanoma\E,skin melanoma treatmenter best jayga
Bangla,run3,more\E,more\B,mathae bel porle ki lok more jete pare
Bangla,run3,more\E,more\B,more aro aro aro dao pran music video
Bangla,run3,nagpal\B,nagpal\E,Durga shakti nagpal bali mafia up sarkar jhamela khabar
Bangla,run3,nehwal\B,nehwal\E,saina nehwal ibl match reports anandabazar
Bangla,run3,noon\E,noon\B,noon na dile khabarer taste hoyna
Bangla,run3,o\E,o\B,tar mane ki o aj ashbena
Bangla,run3,pakistan\B,pakistan\E,bangladesh ar pakistan 1999 world cup scorecard
Bangla,run3,pot\E,pot\B,chhobi akar pot mane ki
Bangla,run3,ram\B,ram\E,amar kasperksy eto ram nichchhe keno
Bangla,run3,rash\B,rash\E,amar gay eto rash beroche keno
Bangla,run3,rosenbergke\B,rosenbergke\E,amanda rosenbergke kemon dekhte
Bangla,run3,sachin\B,sachin\E,sachin tendulkarer recent chhobi
Bangla,run3,saina\B,saina\E,saina nehwal ibl match reports anandabazar
Bangla,run3,sale\B,sale\E,chaitro masher sale kolkatar kon kon dokane hoi
Bangla,run3,semantics\B,semantics\E,journal of web semantics elsevier
Bangla,run3,servere\B,servere\E,mysql servere ki kore user add kore
Bangla,run3,shakti\B,shakti\E,Durga shakti nagpal bali mafia up sarkar jhamela khabar
Bangla,run3,sheet\E,sheet\B,beshi sheet kora ki kono oshukher symptoms
Bangla,run3,sigchi\B,sigchi\E,ebare acm sigchi conference kothae hobe kobe hobe
Bangla,run3,subtitle\B,subtitle\E,chennai expresser bangla subtitle
Bangla,run3,sudo\B,sudo\E,Amar ubuntute sudo apt gete kono download hochhena keno
Bangla,run3,tamile\B,tamile\E,ami tomake valobasi tamile ki habe
Bangla,run3,Tata\B,Tata\E,Singur samassya Tata supreme court judgement
Bangla,run3,tendulkarer\B,tendulkarer\E,sachin tendulkarer recent chhobi
Bangla,run3,torrenter\B,torrenter\E,bangla torrenter valo site
Bangla,run3,treatmenter\B,treatmenter\E,skin melanoma treatmenter best jayga
Bangla,run3,ubuntute\B,ubuntute\E,Amar ubuntute sudo apt gete kono download hochhena keno
Bangla,run3,vasari\B,vasari\E,florencer vasari corridorer chhobi
Bangla,run3,washingtone\B,washingtone\E,new york ar washingtone beranor jayga
Gujarati,run1,be\E,be\G,aaj be dilo ne jo jodi shakiae to bas chhe
Gujarati,run1,be\E,be\G,be janaa dilthi male to ek
Gujarati,run1,be\E,be\G,hayaat mata pitani chhatrachhayama vahaalpana be ven boline nirakhi lejo
Gujarati,run1,be\E,be\G,prem thi jivi shakiae jo be pal to bas chhe
Gujarati,run1,door\E,door\G,aaj naa yuvano mata pita thi door raheva mangta hoya chhe
Gujarati,run1,fourlane\G,fourlane\E,Gandhinagar mahudi maargne fourlane karaashe
Gujarati,run1,hindi\E,hindi\G,sav thi saru hindi chapu kayu chhe
Gujarati,run1,hon\E,hon\G,nahi samaan vahe hon ma samaan beeju hon
Gujarati,run1,ki\E,ki\G,mumbai ke dilhi nahi ye baat hai pure jahaa ki
Gujarati,run1,le\E,le\G,na jaane kon kyaare aavi ghunti le adhi akshar
Gujarati,run1,man\E,man\G,machakodayelo pag ane sankochaayelu man
Gujarati,run1,man\E,man\G,tamaro man pasand rang kayo chhe
Gujarati,run1,me\E,me\G,aa film me gaya athwadiye joi
Gujarati,run1,mel\E,mel\G,taaro ne maro mel nahi khaaya o tabeeb
Gujarati,run1,no\E,no\G,gaye kal no safar kevo hato
Gujarati,run1,no\E,no\G,ma no arth duniyani badhi bhashama ma ja thaaya chhe
Gujarati,run1,o\E,o\G,taaro ne maro mel nahi khaaya o tabeeb
Gujarati,run1,pal\E,pal\G,prem thi jivi shakiae jo be pal to bas chhe
Gujarati,run1,pat\E,pat\G,umarno kanto pap pat aaspaas
Gujarati,run1,pet\E,pet\G,nathi kaai pet jevu annkut aene jamaade chhe
Gujarati,run1,pure\E,pure\G,mumbai ke dilhi nahi ye baat hai pure jahaa ki
Gujarati,run1,sur\E,sur\G,sur to nathi parantu surano ughaad chhu
Gujarati,run1,te\E,te\G,asamarthane samarth banaave te ja kharu daan
Gujarati,run1,te\E,te\G,jati betho jape ne je aave te khape
Gujarati,run1,te\E,te\G,je atake chhe te atake chhe
Gujarati,run1,te\E,te\G,je gharma santaan satat mata pita ni zankhe chhe te gharma aaje pan satyug chale chhe
Gujarati,run1,te\E,te\G,te aakhi raat suto rehhiyo
Gujarati,run1,te\E,te\G,te jaga ketali dur chhe
Gujarati,run1,te\E,te\G,te loko meeting mate sha mate moda padiya
Gujarati,run1,te\E,te\G,te loko sha mate tya besi gaya
Gujarati,run1,te\E,te\G,te peli theli sha mate laviyo
Gujarati,run1,to\E,to\G,aaj be dilo ne jo jodi shakiae to bas chhe
Gujarati,run1,to\E,to\G,aaj bhulo ne bhuli shakiae to bas chhe
Gujarati,run1,to\E,to\G,aa tathya aapne bolie to chhie
Gujarati,run1,to\E,to\G,aem jo hradayama padela avgun khatakshe to atakshe
Gujarati,run1,to\E,to\G,bane to swachchh rakho harghadi haiyaani paatine
Gujarati,run1,to\E,to\G,be janaa dilthi male to ek
Gujarati,run1,to\E,to\G,jo tara aakashani kavita chhe to mata prathvini kavita chhe
Gujarati,run1,to\E,to\G,prem thi jivi shakiae jo be pal to bas chhe
Gujarati,run1,to\E,to\G,sur to nathi parantu surano ughaad chhu
Gujarati,run1,to\E,to\G,to gulabi kul aa taaru ja chhe
Gujarati,run2,aims\G,aims\E,congresna adhyaksh soniya gandhi achanak bimaar aims daakhal
Gujarati,run2,be\E,be\G,be janaa dilthi male to ek
Gujarati,run2,fourlane\G,fourlane\E,Gandhinagar mahudi maargne fourlane karaashe
Gujarati,run2,hon\E,hon\G,nahi samaan vahe hon ma samaan beeju hon
Gujarati,run2,le\E,le\G,na jaane kon kyaare aavi ghunti le adhi akshar
Gujarati,run2,manager\G,manager\E,manager ni cabin kya chhe
Gujarati,run2,me\E,me\G,aa film me gaya athwadiye joi
Gujarati,run2,mel\E,mel\G,taaro ne maro mel nahi khaaya o tabeeb
Gujarati,run2,o\E,o\G,taaro ne maro mel nahi khaaya o tabeeb
Gujarati,run2,pet\E,pet\G,nathi kaai pet jevu annkut aene jamaade chhe
Gujarati,run2,sur\E,sur\G,sur to nathi parantu surano ughaad chhu
Gujarati,run2,te\E,te\G,asamarthane samarth banaave te ja kharu daan
Gujarati,run2,te\E,te\G,jati betho jape ne je aave te khape
Gujarati,run2,te\E,te\G,je atake chhe te atake chhe
Gujarati,run2,te\E,te\G,je gharma santaan satat mata pita ni zankhe chhe te gharma aaje pan satyug chale chhe
Gujarati,run2,te\E,te\G,te aakhi raat suto rehhiyo
Gujarati,run2,te\E,te\G,te jaga ketali dur chhe
Gujarati,run2,te\E,te\G,te loko meeting mate sha mate moda padiya
Gujarati,run2,te\E,te\G,te loko sha mate tya besi gaya
Gujarati,run2,te\E,te\G,te peli theli sha mate laviyo
Gujarati,run2,to\E,to\G,sur to nathi parantu surano ughaad chhu
Gujarati,run2,to\E,to\G,to gulabi kul aa taaru ja chhe
Gujarati,run2,tu\E,tu\G,tu aavi tevi harkato nai kare ne
Gujarati,run2,tu\E,tu\G,tu mara room ma pariksha pachi aavje
Gujarati,run2,tu\E,tu\G,tu yamayi laine ubho chhe dariyo maagva mate
Gujarati,run2,ye\E,ye\G,mumbai ke dilhi nahi ye baat hai pure jahaa ki
Gujarati,run3,bane\E,bane\G,bane to swachchh rakho harghadi haiyaani paatine
Gujarati,run3,be\E,be\G,be janaa dilthi male to ek
Gujarati,run3,fourlane\G,fourlane\E,Gandhinagar mahudi maargne fourlane karaashe
Gujarati,run3,hon\E,hon\G,nahi samaan vahe hon ma samaan beeju hon
Gujarati,run3,ke\E,ke\G,ke jaane prabhu kyaya chhe ja nahi
Gujarati,run3,le\E,le\G,na jaane kon kyaare aavi ghunti le adhi akshar
Gujarati,run3,mate\E,mate\G,te loko meeting mate sha mate moda padiya
Gujarati,run3,me\E,me\G,aa film me gaya athwadiye joi
Gujarati,run3,mel\E,mel\G,taaro ne maro mel nahi khaaya o tabeeb
Gujarati,run3,ni\E,ni\G,manager ni cabin kya chhe
Gujarati,run3,nu\E,nu\G,deshna airport par bomb nu jokham
Gujarati,run3,o\E,o\G,taaro ne maro mel nahi khaaya o tabeeb
Gujarati,run3,pal\E,pal\G,prem thi jivi shakiae jo be pal to bas chhe
Gujarati,run3,pap\E,pap\G,umarno kanto pap pat aaspaas
Gujarati,run3,par\E,par\G,deshna airport par bomb nu jokham
Gujarati,run3,pat\E,pat\G,umarno kanto pap pat aaspaas
Gujarati,run3,pet\E,pet\G,nathi kaai pet jevu annkut aene jamaade chhe
Gujarati,run3,pure\E,pure\G,mumbai ke dilhi nahi ye baat hai pure jahaa ki
Gujarati,run3,sur\E,sur\G,sur to nathi parantu surano ughaad chhu
Gujarati,run3,te\E,te\G,asamarthane samarth banaave te ja kharu daan
Gujarati,run3,te\E,te\G,jati betho jape ne je aave te khape
Gujarati,run3,te\E,te\G,je atake chhe te atake chhe
Gujarati,run3,te\E,te\G,je gharma santaan satat mata pita ni zankhe chhe te gharma aaje pan satyug chale chhe
Gujarati,run3,te\E,te\G,te aakhi raat suto rehhiyo
Gujarati,run3,te\E,te\G,te jaga ketali dur chhe
Gujarati,run3,te\E,te\G,te loko meeting mate sha mate moda padiya
Gujarati,run3,te\E,te\G,te loko sha mate tya besi gaya
Gujarati,run3,te\E,te\G,te peli theli sha mate laviyo
Gujarati,run3,to\E,to\G,bane to swachchh rakho harghadi haiyaani paatine
Gujarati,run3,to\E,to\G,prem thi jivi shakiae jo be pal to bas chhe
Gujarati,run3,to\E,to\G,sur to nathi parantu surano ughaad chhu
Gujarati,run3,to\E,to\G,to gulabi kul aa taaru ja chhe
Gujarati,run3,tu\E,tu\G,tu aavi tevi harkato nai kare ne
Gujarati,run3,tu\E,tu\G,tu mara room ma pariksha pachi aavje
Gujarati,run3,tu\E,tu\G,tu yamayi laine ubho chhe dariyo maagva mate
Gujarati,run3,ye\E,ye\G,mumbai ke dilhi nahi ye baat hai pure jahaa ki
Hindi,run1,abdul\H,abdul\E,nuclear guru apj abdul kalaam
Hindi,run1,ad\H,ad\E,coca cola umeed vali dhoop ad
Hindi,run1,a\H,a\E,once upon a time in mumbai ke gaane
Hindi,run1,apj\H,apj\E,nuclear guru apj abdul kalaam
Hindi,run1,ate\E,ate\H,ate jate jo milta hai gana
Hindi,run1,ban\H,ban\E,ricky ponting par ban ICC
Hindi,run1,bar\E,bar\H,bar bar haan blo yarron haan from lagan singer
Hindi,run1,beach\E,beach\H,tujhe aksa beach ghuma doon movie
Hindi,run1,beech\E,beech\H,izhar kero hum se pyar ka o sanam roko na beech safar chahaton k ab to qadam song lyrics
Hindi,run1,beech\E,beech\H,naxal aur police ke beech matbhed jharkhand latest
Hindi,run1,bhupathi\H,bhupathi\E,bhupathi paes ki jodi semifinals me tennis updates
Hindi,run1,boya\H,boys\E,boya r best jaan lo baat ye maan lo music release
Hindi,run1,chennai\H,chennai\E,chennai express ka lungi dance
Hindi,run1,deepika\H,deepika\E,deepika padukone bani sabse mahangi abhinetri
Hindi,run1,de\H,de\E,rio de janeiro me agla olympics 2016
Hindi,run1,delhi\H,delhi\Nदिल्ली,delhi ke parathe gali ke parathe
Hindi,run1,dewarists\H,dewarists\E,the dewarists kya khayaal hai
Hindi,run1,dill\E,dil\H,dill ki tanhai ko awaz bana letay hain lyrics meaning
Hindi,run1,dimple\H,dimple\E,preity zinta ke gaal pe dimple
Hindi,run1,don\E,don\H,main hoon don movie
Hindi,run1,doom\H,doom\E,indiana jones and the temple of doom cast
Hindi,run1,duwan2\E,dhua\H,duwan2 ho raha hai sama kahin to hai aag lagi singer
Hindi,run1,e\E,e\H,e zindgi gale laga le movie name
Hindi,run1,e\E,e\H,tune hai mere zakhmi e giger music release
Hindi,run1,episode\H,episode\E,sach ka saamna vinod kambli full episode download
Hindi,run1,episodes\H,episodes\E,kaun banega crorepati season 2 episodes
Hindi,run1,from\E,from\H,aisa desh hai mera from veerzara movie name
Hindi,run1,girltere\H,girltere\E,dream girltere mere sapne
Hindi,run1,guarantee\H,guarantee\E,mahatma gandhi rashtriya grameen rozgar guarantee scheme
Hindi,run1,heritage\H,heritage\E,heritage ka matlab hindi me
Hindi,run1,hero\H,hero\E,india ka naya super hero krrish
Hindi,run1,hyderabad\H,hyderabad\E,hyderabad ki nawabi biriyaani
Hindi,run1,hyderabad\H,hyderabad\E,narendra modi ka hyderabad mein bhashan
Hindi,run1,i\H,i\E,i love you hindi shayari
Hindi,run1,i\H,i\E,i me aur main movie cast
Hindi,run1,indo\H,indo\E,1962 ka indo china yudh
Hindi,run1,infosys\H,infosys\E,NRN murthy infosys mein vapas aaye
Hindi,run1,inn\E,in\H,inn dino dil mera mujhse hai kah raha song release date
Hindi,run1,janeiro\H,janeiro\E,rio de janeiro me agla olympics 2016
Hindi,run1,kalaam\H,kalaam\E,nuclear guru apj abdul kalaam
Hindi,run1,kendra\E,kendra\H,mumbai ke aakarshan kendra
Hindi,run1,luck\E,luck\H,aazma luck aazma
Hindi,run1,mann\E,mann\H,bawra mann dekhne chala ek sapna song lyrics
Hindi,run1,mann\E,mann\H,mann ki lagan lyrics meaning
Hindi,run1,mantra\E,mantra\H,gayatri mantra english translation
Hindi,run1,margin\H,margin\E,profit margin ka formula
Hindi,run1,marte\E,marte\H,jaane kyun wo kisi pe marte hain music release date
Hindi,run1,maximum\H,maximum\E,shoaib akthar ka maximum raftaar
Hindi,run1,me\H,me\E,i me aur main movie cast
Hindi,run1,me\H,me\E,law school me dakhila
Hindi,run1,murthy\H,murthy\E,NRN murthy infosys mein vapas aaye
Hindi,run1,music\E,sakay\H,tikhi tikhi aankhein bole aa jeher ka jaam pi leee music release date
Hindi,run1,myntra\H,myntra\E,myntra online order kurta
Hindi,run1,mythological\H,mythological\E,greece ke mythological stories
Hindi,run1,nadal\H,nadal\E,nadal aur djokovic ka deadly mukabla wimbledon
Hindi,run1,Nicholas\H,Nicholas\E,Nicholas Sparks ke novels
Hindi,run1,no\H,no\E,saina harayi world no 2 ko ATP tennis updates
Hindi,run1,no\H,no\E,test rankings mein no 2 bani team india
Hindi,run1,oh\E,oh\H,oh jaanam song composer
Hindi,run1,olympiad\H,olympiad\E,jamshedpur ka chhatra rashtriya maths olympiad me avval
Hindi,run1,padukone\H,padukone\E,deepika padukone bani sabse mahangi abhinetri
Hindi,run1,paes\H,paes\E,bhupathi paes ki jodi semifinals me tennis updates
Hindi,run1,per\E,zahar\H,hum bewfa hergaiz na thay per hum wafa ker na skay movie name
Hindi,run1,phuket\H,phuket\E,phuket tourism ke honeymoon offers
Hindi,run1,puducherry\H,puducherry\E,puducherry sri aurobindo ashram
Hindi,run1,Pyjamas\H,Pyjamas\E,The Boy in the Striped Pyjamas movie cast
Hindi,run1,quora\H,quora\E,quora ka indian users
Hindi,run1,range\E,rang\H,khul rahe hai range saare movie name
Hindi,run1,rung\E,rang\H,mere rung me singer
Hindi,run1,singh\E,singh\H,paan singh tomar dakait movie
Hindi,run1,singh\E,singh\H,yuvraj singh ki surgery
Hindi,run1,skay\H,music\E,hum bewfa hergaiz na thay per hum wafa ker na skay movie name
Hindi,run1,sri\E,sri\H,puducherry sri aurobindo ashram
Hindi,run1,taxi\H,taxi\E,howrah mein taxi service
Hindi,run1,telangana\H,telangana\E,telangana par congress vivaad
Hindi,run1,telangana\H,telangana\E,telangana vivaad aaj tak breaking news
Hindi,run1,the\E,the\H,hum bewafa hargiz na the video download
Hindi,run1,tin\E,tin\H,tinak tin taana singer
Hindi,run1,tutorials\H,tutorials\E,physics ke online tutorials
Hindi,run1,ve\E,ve\H,haaye ve mera daadeiya raab video download
Hindi,run1,wade\E,waade\H,wafa ke wade woh sare bhul gaya chup chap video download
Hindi,run1,yoga\H,yoga\E,baba ramdev yoga for obesity
Hindi,run1,zara2\E,zara\H,zara2 behekta hai mehekta hai song release
Hindi,run2,abdul\H,abdul\E,nuclear guru apj abdul kalaam
Hindi,run2,a\H,a\E,once upon a time in mumbai ke gaane
Hindi,run2,allah\E,allah\H,masha allah music director
Hindi,run2,apj\H,apj\E,nuclear guru apj abdul kalaam
Hindi,run2,ate\E,ate\H,ate jate jo milta hai gana
Hindi,run2,ban\H,ban\E,ricky ponting par ban ICC
Hindi,run2,bar\E,bar\H,bar bar haan blo yarron haan from lagan singer
Hindi,run2,bat\E,bat\H,jab koi bat bigadh jaye lyrics meaning
Hindi,run2,beach\E,beach\H,tujhe aksa beach ghuma doon movie
Hindi,run2,bhupathi\H,bhupathi\E,bhupathi paes ki jodi semifinals me tennis updates
Hindi,run2,boya\H,boys\E,boya r best jaan lo baat ye maan lo music release
Hindi,run2,chain\E,chain\H,chain na aaye gaana.com
Hindi,run2,chain\E,chain\H,dard bhi hame kabool chain bhi hame kabool humne har tarah ke phool haar mein piroliye song release
Hindi,run2,chennai\H,chennai\E,chennai express ka lungi dance
Hindi,run2,deepika\H,deepika\E,deepika padukone bani sabse mahangi abhinetri
Hindi,run2,de\H,de\E,rio de janeiro me agla olympics 2016
Hindi,run2,delhi\H,delhi\Nदिल्ली,delhi ke parathe gali ke parathe
Hindi,run2,dewarists\H,dewarists\E,the dewarists kya khayaal hai
Hindi,run2,dill\E,dil\H,dill ki tanhai ko awaz bana letay hain lyrics meaning
Hindi,run2,dimple\H,dimple\E,preity zinta ke gaal pe dimple
Hindi,run2,duwan2\E,dhua\H,duwan2 ho raha hai sama kahin to hai aag lagi singer
Hindi,run2,from\E,from\H,aisa desh hai mera from veerzara movie name
Hindi,run2,girltere\H,girltere\E,dream girltere mere sapne
Hindi,run2,guarantee\H,guarantee\E,mahatma gandhi rashtriya grameen rozgar guarantee scheme
Hindi,run2,heritage\H,heritage\E,heritage ka matlab hindi me
Hindi,run2,hero\H,hero\E,india ka naya super hero krrish
Hindi,run2,hyderabad\H,hyderabad\E,hyderabad ki nawabi biriyaani
Hindi,run2,hyderabad\H,hyderabad\E,narendra modi ka hyderabad mein bhashan
Hindi,run2,i\H,i\E,i love you hindi shayari
Hindi,run2,i\H,i\E,i me aur main movie cast
Hindi,run2,indo\H,indo\E,1962 ka indo china yudh
Hindi,run2,infosys\H,infosys\E,NRN murthy infosys mein vapas aaye
Hindi,run2,inn\E,in\H,inn dino dil mera mujhse hai kah raha song release date
Hindi,run2,janeiro\H,janeiro\E,rio de janeiro me agla olympics 2016
Hindi,run2,kalaam\H,kalaam\E,nuclear guru apj abdul kalaam
Hindi,run2,kendra\E,kendra\H,mumbai ke aakarshan kendra
Hindi,run2,luck\E,luck\H,aazma luck aazma
Hindi,run2,mann\E,mann\H,mann ki lagan lyrics meaning
Hindi,run2,mantra\E,mantra\H,gayatri mantra english translation
Hindi,run2,me\H,me\E,i me aur main movie cast
Hindi,run2,me\H,me\E,law school me dakhila
Hindi,run2,murthy\H,murthy\E,NRN murthy infosys mein vapas aaye
Hindi,run2,music\E,sakay\H,tikhi tikhi aankhein bole aa jeher ka jaam pi leee music release date
Hindi,run2,myntra\H,myntra\E,myntra online order kurta
Hindi,run2,mythological\H,mythological\E,greece ke mythological stories
Hindi,run2,nadal\H,nadal\E,nadal aur djokovic ka deadly mukabla wimbledon
Hindi,run2,Nicholas\H,Nicholas\E,Nicholas Sparks ke novels
Hindi,run2,no\H,no\E,test rankings mein no 2 bani team india
Hindi,run2,olympiad\H,olympiad\E,jamshedpur ka chhatra rashtriya maths olympiad me avval
Hindi,run2,padukone\H,padukone\E,deepika padukone bani sabse mahangi abhinetri
Hindi,run2,paes\H,paes\E,bhupathi paes ki jodi semifinals me tennis updates
Hindi,run2,per\E,zahar\H,hum bewfa hergaiz na thay per hum wafa ker na skay movie name
Hindi,run2,phuket\H,phuket\E,phuket tourism ke honeymoon offers
Hindi,run2,puducherry\H,puducherry\E,puducherry sri aurobindo ashram
Hindi,run2,Pyjamas\H,Pyjamas\E,The Boy in the Striped Pyjamas movie cast
Hindi,run2,quora\H,quora\E,quora ka indian users
Hindi,run2,range\E,rang\H,khul rahe hai range saare movie name
Hindi,run2,rung\E,rang\H,mere rung me singer
Hindi,run2,se\E,se\H,federer french open se bahar breaking news
Hindi,run2,se\E,se\H,gujarat government se aarakshan ki maang gujjar
Hindi,run2,se\E,se\H,nuclear program par iran ko mili USA se chetavani
Hindi,run2,singh\E,singh\H,paan singh tomar dakait movie
Hindi,run2,singh\E,singh\H,yuvraj singh ki surgery
Hindi,run2,skay\H,music\E,hum bewfa hergaiz na thay per hum wafa ker na skay movie name
Hindi,run2,sri\E,sri\H,puducherry sri aurobindo ashram
Hindi,run2,taxi\H,taxi\E,howrah mein taxi service
Hindi,run2,telangana\H,telangana\E,telangana par congress vivaad
Hindi,run2,telangana\H,telangana\E,telangana vivaad aaj tak breaking news
Hindi,run2,The\H,The\E,The Boy in the Striped Pyjamas movie cast
Hindi,run2,the\H,the\E,the dewarists kya khayaal hai
Hindi,run2,tin\E,tin\H,tinak tin taana singer
Hindi,run2,tutorials\H,tutorials\E,physics ke online tutorials
Hindi,run2,wade\E,waade\H,wafa ke wade woh sare bhul gaya chup chap video download
Hindi,run2,yoga\H,yoga\E,baba ramdev yoga for obesity
Hindi,run2,zara2\E,zara\H,zara2 behekta hai mehekta hai song release
Hindi,run3,abdul\H,abdul\E,nuclear guru apj abdul kalaam
Hindi,run3,a\H,a\E,once upon a time in mumbai ke gaane
Hindi,run3,apj\H,apj\E,nuclear guru apj abdul kalaam
Hindi,run3,ate\E,ate\H,ate jate jo milta hai gana
Hindi,run3,ban\H,ban\E,ricky ponting par ban ICC
Hindi,run3,bat\E,bat\H,jab koi bat bigadh jaye lyrics meaning
Hindi,run3,beach\E,beach\H,tujhe aksa beach ghuma doon movie
Hindi,run3,bhupathi\H,bhupathi\E,bhupathi paes ki jodi semifinals me tennis updates
Hindi,run3,boya\H,boys\E,boya r best jaan lo baat ye maan lo music release
Hindi,run3,chain\E,chain\H,chain na aaye gaana.com
Hindi,run3,chain\E,chain\H,dard bhi hame kabool chain bhi hame kabool humne har tarah ke phool haar mein piroliye song release
Hindi,run3,chennai\H,chennai\E,chennai express ka lungi dance
Hindi,run3,deepika\H,deepika\E,deepika padukone bani sabse mahangi abhinetri
Hindi,run3,de\H,de\E,rio de janeiro me agla olympics 2016
Hindi,run3,delhi\H,delhi\Nदिल्ली,delhi ke parathe gali ke parathe
Hindi,run3,dewarists\H,dewarists\E,the dewarists kya khayaal hai
Hindi,run3,dill\E,dil\H,dill ki tanhai ko awaz bana letay hain lyrics meaning
Hindi,run3,dimple\H,dimple\E,preity zinta ke gaal pe dimple
Hindi,run3,doom\H,doom\E,indiana jones and the temple of doom cast
Hindi,run3,duwan2\E,dhua\H,duwan2 ho raha hai sama kahin to hai aag lagi singer
Hindi,run3,e\E,e\H,e zindgi gale laga le movie name
Hindi,run3,for\H,for\E,baba ramdev yoga for obesity
Hindi,run3,from\E,from\H,aisa desh hai mera from veerzara movie name
Hindi,run3,girltere\H,girltere\E,dream girltere mere sapne
Hindi,run3,hot\H,hot\E,delhi ka hot climate
Hindi,run3,hyderabad\H,hyderabad\E,hyderabad ki nawabi biriyaani
Hindi,run3,hyderabad\H,hyderabad\E,narendra modi ka hyderabad mein bhashan
Hindi,run3,i\H,i\E,i love you hindi shayari
Hindi,run3,i\H,i\E,i me aur main movie cast
Hindi,run3,indo\H,indo\E,1962 ka indo china yudh
Hindi,run3,infosys\H,infosys\E,NRN murthy infosys mein vapas aaye
Hindi,run3,iran\H,iran\E,nuclear program par iran ko mili USA se chetavani
Hindi,run3,janeiro\H,janeiro\E,rio de janeiro me agla olympics 2016
Hindi,run3,jo\E,jo\H,tune jo naa kaha movie
Hindi,run3,kalaam\H,kalaam\E,nuclear guru apj abdul kalaam
Hindi,run3,kendra\E,kendra\H,mumbai ke aakarshan kendra
Hindi,run3,luck\E,luck\H,aazma luck aazma
Hindi,run3,mantra\E,mantra\H,gayatri mantra english translation
Hindi,run3,me\H,me\E,i me aur main movie cast
Hindi,run3,me\H,me\E,law school me dakhila
Hindi,run3,murthy\H,murthy\E,NRN murthy infosys mein vapas aaye
Hindi,run3,music\E,sakay\H,tikhi tikhi aankhein bole aa jeher ka jaam pi leee music release date
Hindi,run3,myntra\H,myntra\E,myntra online order kurta
Hindi,run3,mythological\H,mythological\E,greece ke mythological stories
Hindi,run3,Nicholas\H,Nicholas\E,Nicholas Sparks ke novels
Hindi,run3,no\H,no\E,saina harayi world no 2 ko ATP tennis updates
Hindi,run3,no\H,no\E,test rankings mein no 2 bani team india
Hindi,run3,of\H,of\E,doctor of philosophy ka short form
Hindi,run3,of\H,of\E,indiana jones and the temple of doom cast
Hindi,run3,of\H,of\E,units of pressure ka conversion table
Hindi,run3,olympiad\H,olympiad\E,jamshedpur ka chhatra rashtriya maths olympiad me avval
Hindi,run3,padukone\H,padukone\E,deepika padukone bani sabse mahangi abhinetri
Hindi,run3,paes\H,paes\E,bhupathi paes ki jodi semifinals me tennis updates
Hindi,run3,per\E,zahar\H,hum bewfa hergaiz na thay per hum wafa ker na skay movie name
Hindi,run3,phuket\H,phuket\E,phuket tourism ke honeymoon offers
Hindi,run3,puducherry\H,puducherry\E,puducherry sri aurobindo ashram
Hindi,run3,Pyjamas\H,Pyjamas\E,The Boy in the Striped Pyjamas movie cast
Hindi,run3,quora\H,quora\E,quora ka indian users
Hindi,run3,rung\E,rang\H,mere rung me singer
Hindi,run3,se\E,se\H,federer french open se bahar breaking news
Hindi,run3,se\E,se\H,gujarat government se aarakshan ki maang gujjar
Hindi,run3,se\E,se\H,nuclear program par iran ko mili USA se chetavani
Hindi,run3,skay\H,music\E,hum bewfa hergaiz na thay per hum wafa ker na skay movie name
Hindi,run3,taxi\H,taxi\E,howrah mein taxi service
Hindi,run3,teen\E,teen\H,bharat ki teen badi companies
Hindi,run3,telangana\H,telangana\E,telangana par congress vivaad
Hindi,run3,telangana\H,telangana\E,telangana vivaad aaj tak breaking news
Hindi,run3,The\H,The\E,The Boy in the Striped Pyjamas movie cast
Hindi,run3,the\H,the\E,the dewarists kya khayaal hai
Hindi,run3,tin\E,tin\H,tinak tin taana singer
Hindi,run3,tune\E,tune\H,chhokar mere man ko kiya tune kya ishara video
Hindi,run3,tune\E,tune\H,pyaar tune kya kiya song release
Hindi,run3,tune\E,tune\H,saatiya tune kya kiya beliya ye tune kya kiya lyrics
Hindi,run3,tune\E,tune\H,tune hai mere zakhmi e giger music release
Hindi,run3,tune\E,tune\H,tune jo naa kaha movie
Hindi,run3,tutorials\H,tutorials\E,physics ke online tutorials
Hindi,run3,wade\E,waade\H,wafa ke wade woh sare bhul gaya chup chap video download
Hindi,run3,we\H,we\E,jab we met ka turnover bollywood
Hindi,run3,yoga\H,yoga\E,baba ramdev yoga for obesity
Hindi,run3,zara2\E,zara\H,zara2 behekta hai mehekta hai song release
